{
    "name": "localratings",
    "version": "0.27.1",
    "label": "LocalRatings",
    "description": "Rate players from multiplayer games.",
    "ignoreInCompatibilityChecks": true,
    "dependencies": ["0ad=0.27.0"],
    "url": "https://gitlab.com/mentula0ad/LocalRatings"
}
